…
Each dataframe contains an **Id field**, which can serve as a key to merge them into comprehensive datasets (e.g., daily or hourly dataframes). However, the formatting of the activity date/time variables appears inconsistent across some dataframes. To investigate further, we use the select() function to isolate and examine these variables more closely.
``` r
daily_activity %>%
  select(Id, ActivityDate)
```

``` r
# A tibble: 940 × 2
           Id ActivityDate
        <dbl> <chr>       
 1 1503960366 4/12/2016   
 2 1503960366 4/13/2016   
 3 1503960366 4/14/2016   
 4 1503960366 4/15/2016   
 5 1503960366 4/16/2016   
 6 1503960366 4/17/2016   
 7 1503960366 4/18/2016   
 8 1503960366 4/19/2016   
 9 1503960366 4/20/2016   
10 1503960366 4/21/2016   
# ℹ 930 more rows
# ℹ Use `print(n = ...)` to see more rows
```
``` r
daily_calories %>%
  select(Id, ActivityDay)
```
``` r
# A tibble: 940 × 2
           Id ActivityDay
        <dbl> <chr>      
 1 1503960366 4/12/2016  
 2 1503960366 4/13/2016  
 3 1503960366 4/14/2016  
 4 1503960366 4/15/2016  
 5 1503960366 4/16/2016  
 6 1503960366 4/17/2016  
 7 1503960366 4/18/2016  
 8 1503960366 4/19/2016  
 9 1503960366 4/20/2016  
10 1503960366 4/21/2016  
# ℹ 930 more rows
# ℹ Use `print(n = ...)` to see more rows
```
``` r
daily_intensities %>%
select(Id, ActivityDay)
```
``` r
# A tibble: 940 × 2
           Id ActivityDay
        <dbl> <chr>      
 1 1503960366 4/12/2016  
 2 1503960366 4/13/2016  
 3 1503960366 4/14/2016  
 4 1503960366 4/15/2016  
 5 1503960366 4/16/2016  
 6 1503960366 4/17/2016  
 7 1503960366 4/18/2016  
 8 1503960366 4/19/2016  
 9 1503960366 4/20/2016  
10 1503960366 4/21/2016  
# ℹ 930 more rows
# ℹ Use `print(n = ...)` to see more rows
```
``` r
daily_steps %>%
select(Id, ActivityDay)
```
``` r
# A tibble: 940 × 2
           Id ActivityDay
        <dbl> <chr>      
 1 1503960366 4/12/2016  
 2 1503960366 4/13/2016  
 3 1503960366 4/14/2016  
 4 1503960366 4/15/2016  
 5 1503960366 4/16/2016  
 6 1503960366 4/17/2016  
 7 1503960366 4/18/2016  
 8 1503960366 4/19/2016  
 9 1503960366 4/20/2016  
10 1503960366 4/21/2016  
# ℹ 930 more rows
# ℹ Use `print(n = ...)` to see more rows
```
``` r
daily_sleep %>%
select(Id, SleepDay)
```
``` r
# A tibble: 413 × 2
           Id SleepDay             
        <dbl> <chr>                
 1 1503960366 4/12/2016 12:00:00 AM
 2 1503960366 4/13/2016 12:00:00 AM
 3 1503960366 4/15/2016 12:00:00 AM
 4 1503960366 4/16/2016 12:00:00 AM
 5 1503960366 4/17/2016 12:00:00 AM
 6 1503960366 4/19/2016 12:00:00 AM
 7 1503960366 4/20/2016 12:00:00 AM
 8 1503960366 4/21/2016 12:00:00 AM
 9 1503960366 4/23/2016 12:00:00 AM
10 1503960366 4/24/2016 12:00:00 AM
# ℹ 403 more rows
# ℹ Use `print(n = ...)` to see more rows
```
``` r
weight_log %>%
select(Id, Date)

# A tibble: 67 × 2
           Id Date                 
        <dbl> <chr>                
 1 1503960366 5/2/2016 11:59:59 PM 
 2 1503960366 5/3/2016 11:59:59 PM 
 3 1927972279 4/13/2016 1:08:52 AM 
 4 2873212765 4/21/2016 11:59:59 PM
 5 2873212765 5/12/2016 11:59:59 PM
 6 4319703577 4/17/2016 11:59:59 PM
 7 4319703577 5/4/2016 11:59:59 PM 
 8 4558609924 4/18/2016 11:59:59 PM
 9 4558609924 4/25/2016 11:59:59 PM
10 4558609924 5/1/2016 11:59:59 PM 
# ℹ 57 more rows
# ℹ Use `print(n = ...)` to see more rows
```
…
